[   0.00000] Initializingcgroup subsys cpuset
[    000000] Initiaizing cgroup subss cpu
[   .000000] Initalizing cgroup ubyscpuacct
[    0.00000] Linux version 4.4.0-97-generic (bilddlcy01-3) (gcc vrsion 5.4.0 20160609 (Ubuntu 5.40-6uuntu1~16.04.) ) #120-Ubuntu SMP Tue Sep 19 17:2818 UTC 2017 (Ubuntu 44.-97.120-generic 4.487)
[   0.00000] Command line: BOOT_IMAGE=/boot/vmlinz-.4.0-97-generic root=LBEL=clouimg-rootfs ro conole=tty1 consle=ttyS0
[    0.000000] KERNEL supported cps:
[    0.000000]   Intel GenuineIntel
[    0.000000]  AMD AuthenticAMD
[   0.00000]  Cenaur CntaurHauls
[   0.00000] x86/fpu: xstate_offst[2]:  576, xstate_izes[2]:  256
[   .00000] x86/fpu: Supportin XSAVEfeature 0x01:'x87 looating point registers'
[    0.000000] x86/fp: Supporting XSAVE feature 0x02: 'SSE registers'
[    0.000000] x86/fpu: Supporting XSAVE feature 0x04: 'AVX registers'
[    0.000000] x86/fpu: Enabled xstate features 0x7, context size is 832 bytes, using 'standard' ormat.
[   0.000000] x86/fpu: Using 'lazy' FPU context switches.
[    0.000000] e820: BIOS-provided physical RAM map:
[    0.000000] BIOS-e820: [mem 0x0000000000000000-0x000000000009fbff] usable
[    0.000000] BIOS-e820: [mem 0x000000000009fc00-0x000000000009ffff] reserved
[    0.000000] BIOS-e820: [mem 0x00000000000f0000-0x00000000000fffff] reserved
[    0.000000] BIOS-e820: [mem 0x0000000000100000-0x000000003ffeffff] usable
[    0.000000] BIOS-e820: [mem 0x000000003fff0000-0x000000003fffffff] ACPI data
[    0.000000] BIOS-e820: [mem 0x00000000fec00000-0x00000000fec00fff] reserved
[    0.000000] BIOS-e820: [mem 0x00000000fee00000-0x00000000fee00fff] reserved
[    0.000000] BIOS-e820: [mem 0x00000000fffc0000-0x00000000ffffffff] reserved
[    0.000000] NX (Execute Disable) protection: active
[    0.000000] SMBIOS 2.5 present.
[    0.000000] Hypervisor detectd: KV
[    0.000000] e820: last_pfn = 0x3fff0 max_arch_pfn = 0x400000000
[    0.000000] MTRR: Disabled
[    0.000000] x86/PAT: MTRRs disabled, skipping PAT initialization too.
[    0.000000] CPU MTRRs all blank - virtualized system.
[    0.000000] x86/PAT: Configuration [0-7]: WB  WT  UC- UC  WB  WT  UC- UC  
[    0.000000] found SMP MP-table at [mem 0x0009fff0-0x0009ffff] mapped at [ffff88000009fff0]
[    0.000000] Scaning1 aras for low memory corruption
[    0.000000] RAMDISK: [mem 0x36adc000-0x37565fff]
[    0.000000] ACPI: Early table checksum verification disabled
[    0.000000] ACPI: RSDP 0x00000000000E0000 000024 (v02 VBOX  )
[    0.000000] ACPI: XSDT 0x000000003FFF0030 00003C (v01 VBOX   VBOXXSDT 00000001 ASL  00000061)
[   0.00000]ACPI FACP 0x0000000003FF000 000F4 (v04 VBOX  VBOXFACP 00000001 ASL  00000061)
[    0.000000] ACP: DSDT0x00000003FFF0470 021FF (v02 VBOX   VBOXBIOS 00000002 INTL 2000528)
[    0.000000] ACPI: FACS0x00000003FFF0200 00000
[   0.00000] ACPI FACS x000000003FF0200 000040
[    0.000000] API: APIC 0x00000003FFF0240 00005C (v02 VBOX  VBOXPIC 00000001 AL  00000061)
[    0.00000] ACI: SSDT 0x00000003FFF02A0 001CC (v01 VBOX   VOXCPT 0000002 INL 20100528)
[    0.000000] No NMA configuratio found
[   0.000000] Fakin a nde a [mem x0000000000000000-0x00000003ffeffff]
[   0.00000] NOD_DATA(0) alocated [mem 0x3ffeb000-0x3ffeffff]
[    000000] kvm-clock:Using msrs4b56d01 nd 4b564d00
[    0.000000] kvm-cock: pu 0, msr 0:3ffe3001, primary pu clock
[    0.000000] kvm-clck: uing sched offset o 3649115015 cycles
[    0.000000] clcksource: kvm-cloc: mask: 0xfffffffffffffff max_cycles: 0x1cd42e4dffb, max_idle_ns: 881590591483 ns
[    0.000000] Zon ranges:
[    0.000000]   DMA      [mem 0x0000000000001000-0x0000000000ffffff]
[    0.000000]   DMA32    [mem 0x0000000001000000-0x000000003ffeffff]
[    0.000000]   Normal   empty
[    0.000000]   Device   empty
[    0.000000] Movable zone start for each node
[    0.000000] Early memory node ranges
[    0.000000]   node   0: [mem 0x0000000000001000-0x000000000009efff]
[    0.000000]   node   0: [mem 0x0000000000100000-0x000000003ffeffff]
[    0.000000] Initmem setup node 0 [mem 0x0000000000001000-0x000000003ffeffff]
[    0.000000] ACPI: PM-Timer IO Port: 0x4008
[    0.000000] IOAPIC[0]: apic_id 2, version 32, address 0xfec00000, GSI 0-23
[    0.000000] ACPI: INT_SRC_OVR (bus 0 bus_irq 0 global_irq 2 dfl dfl)
[    0.000000] ACPI: INT_SRC_OVR (bus 0 bus_irq 9 global_irq 9 low level)
[    0.000000] Using ACPI (MADT) for SMP configuration information
[    0.000000] smpboot: Allowing 2 CPUs, 0 hotplug CPUs
[    0.000000] PM: Registered nosav memoory: [mem 0x00000000-0x00000fff]
[    0.000000] PM: Registered nosave memory: [mem 0x0009f000-0x0009ffff]
[    0.000000] PM: Registered nosave memory: [mem 0x000a0000-0x000effff]
[    0.000000] PM: Registered nosave memory: [mem 0x000f0000-0x000fffff]
[    0.000000] e820: [mem 0x40000000-0xfebfffff] available for PCI devices
[    0.000000] Booting paravirtualized kernel on KVM
[    0.000000] clocksource: refined-jiffies: mask: 0xffffffff max_cycles: 0xffffffff, max_idle_ns: 7645519600211568 ns
[    0.000000] setup_percpu: NR_CPUS:512 nr_cpumask_bits:512 nr_cpu_ids:2 nr_node_ids:1
[    0.000000] PERCPU: Embedded 34 pages/cpu @ffff88003fc00000 s98328 r8192 d32744 u1048576
[    0.000000] PV qspinlock hash table entries: 256 (order: 0 4096 ytes
[    0.000000] Built 1 zonelits in Node order, moblity grouping on  Total pages:257913
[    0.00000] Poicy zone: DM32
[   0.000000] Kernel command line: BOO_IMAGE=/oo/vlinuz-4.4.0-97-generic rot=LBEL=loudimg-rootfs ro console=tty1 consol=ttyS0
[   0.000000] PID hash tale entries: 4096(ordr:3, 3278 bytes
[   .00000] Memory: 1001772K/04810K avaiable(8480K kernel code, 1294K rwdata, 984K rodata, 1492K init,1316K bss, 46348Kreserved, 0K cma-reservd)
[   0000000] SLUB: HWalign=64, Oder=-3, MinObject=0, CPUs=2 Nodes=1
[    0.000000] Hierachical RCU implementation.[    0.000000] 	Buid-time adjustmentof leaf fanout to 6.
[   0.000000] 	RCU restricting CPUs rom NR_PUS=512 tonr_cpu_ids=2.
[    0.000000] RCU: Adjusting geomery fo rcu_fanout_leaf=64, r_cpu_ids=2
[   0.000000] R_IRQS:33024 nr_irqs:40 16[    0.00000] Console: colou VGA 8x25
[    0.000000] console tty1]enabled
[   0.000000] consle [tyS0] enabled
[    0.000000] tsc: Detected 2194.918 MHz processor
[    3.116872] Calibrating delay loop (skipped) preset value.. 4389.83 BogoMIPS (lpj=8779672)
[    3.119958] pid_max: default: 32768 minimum: 301
[    3.121584] ACPI: Core revision 20150930
[    3.123783] ACPI: 2 ACPI AML tables successfully acquired and loaded
[    3.126229] Security Framework initialized
[    3.127850] Yama: becoming mindful.
[    3.129330] AppArmor: AppArmor initialized
[    3.130955] Dentry cache hash table entries: 131072 (order: 8, 1048576 bytes)
[    3.133553] Inode-cache hash table entries: 65536 (order: 7, 524288 bytes)
[    3.137604] Mount-cache hash table entries: 2048 (order: 2, 16384 bytes)
[    3.140126] Moountpoint-cache hash table entries: 2048 (order: 2, 16384 bytes)
[    3.143821] Initializing cgroup subsys io
[    3.145409] Initializing cgroup subsys memory
[    3.148638] Initializing cgroup subsys devices
[    3.150255] Initializing cgroup subsys freezer
[    3.151975] Initializing cgroup subsys net_cls
[    3.153738] Initializing cgroup subsys perf_event
[    3.155451] Initializing cgroup subsys net_prio
[    3.157282] Initializing cgroup subsys hugetlb
[    3.159102] Initializing cgroup subsys pids
[    3.160535] CPU: Physical Processor ID: 0
[    3.161806] CPU: Processor Core ID: 0
[    3.163833] mce: CPU supports 0 MCE banks
[    3.177349] Last level iTLB entries: 4KB 1024, 2MB 1024, 4MB 1024
[    3.184879] Last level dTLB entries: 4KB 1024, 2MB 1024, 4MB 1024, 1GB 4
[    3.219040] Freeing SMP alternatives memory: 32K
[    3.244336] ftrace: allocating 32148 entries in 126 pages
[    3.287352] smpboot: APIC(0) Converting physical 0 to logical package 0
[    3.311019] smpboot: Max logical packages: 1
[    3.324582] x2apic enabled
[    3.344854] Switched APIC routing to physical x2apic.
[    3.369761] ..TIMER: vector=0x30 apic1=0 pin1=2 apic2=-1 pin2=-1
[    3.516210] smpboot: CPU0: Intel(R) Core(TM) i7-4770HQ CPU @ 2.20GHz (family: 0x6, model: 0x46, stepping: 0x1)
[    3.564419] Performance Events: unsupported p6 CPU model 70 no PMU driver, software events only.
[    3.605898] KVM setup paravirtual spinlock
[    3.610925] x86: Booting SMP configuration:
[    3.633736] .... node  #0, CPUs:      #1
[    3.648903] kvm-clock: cpu 1, msr 0:3ffe3041, secondary cpu clock
[    3.658719] mce: CPU supports 0 MCE banks
[    3.661718] x86: Booted up 1 node, 2 CPUs
[    3.663179] smpboot: Total of 2 processors activated (8779.67 BogoMIPS)
[    3.665595] devtmpfs: initialized
[    3.671175] evm: security.selinux
[    3.676827] evm: security.SMACK64
[    3.682047] evm: security.SMACK64EXEC
[    3.695664] evm: security.SMACK64TRANSMUTE
[    3.702327] evm: security.SMACK64MMAP
[    3.708781] evm: security.ima
[    3.716725] evm: security.capability
[    3.720744] clocksource: jiffies: mask: 0xffffffff max_cycles: 0xffffffff, max_idle_ns: 7645041785100000 ns
[    3.735070] futex hash table entries: 512 (order: 3, 32768 bytes)
[    3.750393] pinctrl core: initialized pinctrl subsystem
[    3.758967] RTC time:  8:41:14, date: 11/21/18
[    3.763464] NET: Registered protocol family 16
[    3.779839] cpuidle: using governor ladder
[    3.795940] cpuidle: using governor menu
[    3.801065] PCCT header not found.
[    3.803292] ACPI: bus type PCI registered
[    3.814074] acpiphp: ACPI Hot Plug PCI Controller Driver version: 0.5
[    3.829579] PCI: Using configuration type 1 for base access
[    3.850024] ACPI: Added _OSI(Module Device)
[    3.852760] ACPI: Added _OSI(Processor Device)
[    3.854517] ACPI: Added _OSI(3.0 _SCP Extensions)
[    3.857204] ACPI: Added _OSI(Processor Aggregator Device)
[    3.867430] ACPI: Executed 1 blocks of module-level executable AML code
[    3.883089] ACPI: Interpreter enabled
[    3.894210] ACPI: (supports S0 S5)
[    3.904653] ACPI: Using IOAPIC for interrupt routing
[    3.914235] PCI: Using host bridge windows from ACPI; if necessary, use "pci=nocrs" and report a bug
[    3.937796] ACPI: PCI Root Bridge [PCI0] (domain 0000 [bus 00-ff])
[    3.958038] acpi PNP0A03:00: _OSC: OS supports [ASPM ClockPM Segments MSI]
[    3.967622] acpi PNP0A03:00: _OSC: not requesting OS control; OS requires [ExtendedConfig ASPM ClockPM MSI]
[    3.971933] acpi PNP0A03:00: fail to add MMCONFIG information, can't access extended PCI configuration space under this bridge.
[    3.975882] PCI host bridge to bus 0000:00
[    3.977218] pci_bus 0000:00: root bus resource [io  0x0000-0x0cf7 window]
[    3.980454] pci_bus 0000:00: root bus resource [io  0x0d00-0xffff window]
[    3.987750] pci_bus 0000:00: root bus resource [mem 0x000a0000-0x000bffff window]
[    3.990190] pci_bus 0000:00: root bus resource [mem 0x40000000-0xfdffffff window]
[    3.995145] pci_bus 0000:00: root bus resource [bus 00-ff]
[    4.002816] pci 0000:00:01.1: legacy IDE quirk: reg 0x10: [io  0x01f0-0x01f7]
[    4.024824] pci 0000:00:01.1: legacy IDE quirk: reg 0x14: [io  0x03f6]
[    4.039036] pci 0000:00:01.1: legacy IDE quirk: reg 0x18: [io  0x0170-0x0177]
[    4.059379] pci 0000:00:01.1: legacy IDE quirk: reg 0x1c: [io  0x0376]
[    4.091679] pci 0000:00:07.0: quirk: [io  0x4000-0x403f] claimed by PIIX4 ACPI
[    4.102793] pci 0000:00:07.0: quirk: [io  0x4100-0x410f] claimed by PIIX4 SMB
[    4.116214] ACPI: PCI Interrupt Link [LNKA] (IRQs 5 9 10 *11)
[    4.147339] ACPI: PCI Interrupt Link [LNKB] (IRQs 5 9 *10 11)
[    4.161833] ACPI: PCI Interrupt Link [LNKC] (IRQs 5 *9 10 11)
[    4.176599] ACPI: PCI Interrupt Link [LNKD] (IRQs 5 9 10 *11)
[    4.188088] ACPI: Enabled 2 GPEs in block 00 to 07
[    4.195345] vgaarb: setting as boot device: PCI:0000:00:02.0
[    4.202439] vgaarb: device added: PCI:0000:00:02.0,decodes=io+mem,owns=io+mem,locks=none
[    4.213891] vgaarb: loaded
[    4.215052] vgaarb: bridge control possible 0000:00:02.0
[    4.217456] SCSI subsystem initialized
[    4.218973] ACPI: bus type USB registered
[    4.221645] usbcore: registered new interface driver usbfs
[    4.224575] usbcore: registered new interface driver hub
[    4.227641] usbcore: registered new device driver usb
[    4.229891] PCI: Using ACPI for IRQ routing
[    4.231946] NetLabel: Initializing
[    4.233301] NetLabel:  domain hash size = 128
[    4.235055] NetLabel:  protocols = UNLABELED CIPSOv4
[    4.236904] NetLabel:  unlabeled traffic allowed by default
[    4.238994] amd_nb: Cannot enumerate AMD northbridges
[    4.240982] clocksource: Switched to clocksource kvm-clock
[    4.251950] AppArmor: AppArmor Filesystem Enabled
[    4.253811] pnp: PnP ACPI init
[    4.256466] pnp: PnP ACPI: found 3 devices
[    .27176] clocksource: acpi_pm mask: 0xfffff max_cycles: 0xffffff, mx_dle_ns: 2085701024 ns
[   4.42576] NE: Registered protocolfamily 2

[    4.51238] TCP establishd hash table entries: 8192 order: 4, 65536 bytes)

[    4.589960] TCP bind ash table entries: 192 (order: 5, 13107 bytes)
[    4.668874] TC: Hash tables confiured(established 812 ind 192)
[   4.807788] UP hash tabe entries: 512 (orde: 2,16384 bytes)
[    .923417] UDP-Lite hashtable entries: 52 (ordr: 2, 1684 byts)
[   5.06883 NET: Reistered potocol amily 1
[    5.205729] pci 0000:00:00.0: Liiting direct CI/PCI transfers
[   5.25041]pci 0000:00:01.0: Activating ISA DMA hang workarounds
[    5.327032] Unpacking initramfs...

[    6.952840] Freeing initrd memory: 10792K
[    6.969694] latfrm rtc_cmos:regisered pltform RTCdeice (o PN devce found)
[    7.207612] Scaning for low memory corruption every 60 seconds

[    7.233645] audit: initializing netlink subsys (disabled)
[    7.249811] audit: type=2000 audit(1542789679.749:1): initialized
[    7.278629] Initialise system trusted keyring
[    7.293976] HugeTLB registered 2 MB page size, pre-allocated 0 pages
[    7.319784] zbud: oaded

[    7.344780] VFS: Dis quotas dquot_6.6.0
[    7.374499] VFS: Dquot-cache ash table entries: 512 (rder 0, 4096 byes)[   7.491233] squashfs: version 4.0 (2009/01/31) Phillip Lougher

[    7.540160] fuse init (API version 7.23)
[    7.542016] Key type big_key registered
[    7.543599] Allocating IMA MOK and blacklist keyrings.
[    7.547469] Key type asymmetric registered
[    7.550025] Asymmetric key parser 'x509' registered
[    7.551810] Block layer SCSI generic (bsg) driver version 0.4 loaded (major 249)
[    7.554906] io scheduler noop registered
[    7.556391] io scheduler deadline registered (default)
[    7.558135] io scheduler cfq registered
[    7.559708] pci_hotplug: PCI Hot Plug PCI Core version: 0.5
[    7.561772] pciehp: PCI Express Hot Plug Controller Driver version: 0.4
[    7.564464] ACPI: AC Adapter [AC] (off-line)
[    7.566134] input: Power Button as /devices/LNXSYSTM:00/LNXPWRBN:00/input/input0
[    7.570973] ACPI: Power Button [PWRF]
[    7.572608] input: Sleep Button as /devices/LNXSYSTM:00/LNXSLPBN:00/input/input1
[    7.575847] ACPI: Sleep Button [SLPF]
[    7.577716] GHES: HEST is not enabled!
[    7.580481] ACPI: Battery Slot [BAT0] (battery present)
[    7.581073] Serial: 8250/16550 driver, 32 ports, IRQ sharing enabled
[    7.608139] 00:02: ttyS0 at I/O 0x3f8 (irq = 4, base_baud = 115200) is a 16550A
[    7.654067] Linux agpgart interface v0.103
[    7.658843] loop: module loaded
[    7.659371] scsi host0: ata_piix
[    7.659418] scsi host1: ata_piix
[    7.659442] ata1: PATA max UDMA/33 cmd 0x1f0 ctl 0x3f6 bmdma 0xd000 irq 14
[    7.659442] ata2: PATA max UDMA/33 cmd 0x170 ctl 0x376 bmdma 0xd008 irq 15
[    7.659504] libphy: Fixed MDIO Bus: probed
[    7.659506] tun: Universal TUN/TAP device driver, 1.6
[    7.659506] tun: (C) 1999-2004 Max Krasnyansky <maxk@qualcomm.com>
[    7.659543] PPP generic driver version 2.4.2
[    7.659583] ehci_hcd: USB 2.0 'Enhanced' Host Controller (EHCI) Driver
[    7.659586] ehci-pci: EHCI PCI platform driver
[    7.659600] ehci-platform: EHCI generic platform driver
[    7.659608] ohci_hcd: USB 1.1 'Open' Host Controller (OHCI) Driver
[    7.659610] ohci-pci: OHCI PCI platform driver
[    7.659617] ohci-platform: OHCI generic platform driver
[    7.659623] uhci_hcd: USB Universal Host Controller Interface driver
[    7.659669] i8042: PNP: PS/2 Controller [PNP0303:PS2K,PNP0f03:PS2M] at 0x60,0x64 irq 1,12
[    7.660104] serio: i8042 KBD port at 0x60,0x64 irq 1
[    7.660107] serio: i8042 AUX port at 0x60,0x64 irq 12
[    7.660189] mousedev: PS/2 mouse device common for all mice
[    7.660436] input: AT Translated Set 2 keyboard as /devices/platform/i8042/serio0/input/input2
[    7.660808] rtc_cmos rtc_cmos: rtc core: registered rtc_cmos as rtc0
[    7.660857] rtc_cmos rtc_cmos: alarms up to one day, 114 bytes nvram
[    7.660863] i2c /dev entries driver
[    7.660906] device-mapper: uevent: version 1.0.3
[    7.660950] device-mapper: ioctl: 4.34.0-ioctl (2015-10-28) initialised: dm-devel@redhat.com
[    7.660973] ledtrig-cpu: registered to indicate activity on CPUs
[    7.661196] NET: Registered protocol family 10
[    7.661334] NET: Registered protocol family 17
[    7.661342] Key type dns_resolver registered
[    7.661545] microcode: CPU0 sig=0x40661, pf=0x40, revision=0x0
[    7.664779] microcode: CPU1 sig=0x40661, pf=0x40, revision=0x0
[    7.664806] microcode: Microcode Update Driver: v2.01 <tigran@aivazian.fsnet.co.uk>, Peter Oruba
[    7.664929] registered taskstats version 1
[    7.664955] Loading compiled-in X.509 certificates
[    7.665751] Loaded X.509 cert 'Build time autogenerated kernel key: d1010f9627fd9242df4b03365d2931dfd1ad3d42'
[    7.665768] zswap: loaded using pool lzo/zbud
[    7.668129] Key type trusted registered
[    7.670145] Key type encrypted registered
[    7.670149] AppArmor: AppArmor sha1 policy hashing enabled
[    7.670152] ima: No TPM chip found, activating TPM-bypass!
[    7.670167] evm: HMAC attrs: 0x1
[    7.670589]   Magic number: 10:588:675
[    7.670615] vtconsole vtcon0: hash matches
[    7.674957] rtc_cmos rtc_cmos: setting system clock to 2018-11-21 08:41:18 UTC (1542789678)
[    7.675034] BIOS EDD facility v0.16 2004-Jun-25, 0 devices found
[    7.675035] EDD information not available.
[    7.969145] tsc: Refined TSC clocksource calibration: 2195.183 MHz
[    7.969147] clocksource: tsc: mask: 0xffffffffffffffff max_cycles: 0x1fa46c87d6a, max_idle_ns: 440795261675 ns
[    8.468765] Freeing unused kernel memory: 1492K
[    8.489428] Write protecting the kernel read-only data: 14336k
[    8.510176] Freeing unused kernel memory: 1748K
[    8.527239] Freeing unused kernel memory: 112K
Loading, please wait...
starting version[    8.551973] random: systemd-udevd: uninitialized urandom read (16 bytes read, 2 bits of entropy available)
 229
[    8.552189] random: udevadm: uninitialized urandom read (16 bytes read, 2 bits of entropy available)
[    8.552203] random: udevadm: uninitialized urandom read (16 bytes read, 2 bits of entropy available)
[    8.559114] random: udevadm: uninitialized urandom read (16 bytes read, 2 bits of entropy available)
[    8.559143] random: udevadm: uninitialized urandom read (16 bytes read, 2 bits of entropy available)
[    8.559233] random: udevadm: uninitialized urandom read (16 bytes read, 2 bits of entropy available)
[    8.559268] random: udevadm: uninitialized urandom read (16 bytes read, 2 bits of entropy available)
[    8.559301] random: udevadm: uninitialized urandom read (16 bytes read, 2 bits of entropy available)
[    8.559335] random: udevadm: uninitialized urandom read (16 bytes read, 2 bits of entropy available)
[    8.559368] random: udevadm: uninitialized urandom read (16 bytes read, 2 bits of entropy available)
[    8.716732] Fusion MPT base driver 3.04.20
[    8.720480] Copyright (c) 1999-2008 LSI Corporation
[    8.724421] e1000: Intel(R) PRO/1000 Network Driver - version 7.3.21-k8-NAPI
[    8.727571] e1000: Copyright (c) 1999-2006 Intel Corporation.
[    8.742260] Fusion MPT SPI Host driver 3.04.20
[    8.763897] AVX2 version of gcm_enc/dec engaged.
[    8.769201] AES CTR mode by8 optimization enabled
[    8.943645] input: ImExPS/2 Generic Explorer Mouse as /devices/platform/i8042/serio1/input/input4
[    9.227410] e1000 0000:00:03.0 eth0: (PCI:33MHz:32-bit) 02:51:17:41:23:cb
[    9.235134] e1000 0000:00:03.0 eth0: Intel(R) PRO/1000 Network Connection
[    9.242458] mptbase: ioc0: Initiating bringup
[    9.242707] e1000 0000:00:03.0 enp0s3: renamed from eth0
[    9.354960] ioc0: LSI53C1030 A0: Capabilities={Initiator}
[    9.762668] scsi host2: ioc0: LSI53C1030 A0, FwRev=00000000h, Ports=1, MaxQ=256, IRQ=20
[   10.029974] scsi 2:0:0:0: Direct-Access     VBOX     HARDDISK         1.0  PQ: 0 ANSI: 5
[   10.058699] scsi target2:0:0: Beginning Domain Validation
[   10.088034] scsi target2:0:0: Domain Validation skipping write tests
[   10.117434] scsi target2:0:0: Ending Domain Validation
[   10.140181] scsi target2:0:0: asynchronous
[   10.155201] scsi 2:0:1:0: Direct-Access     VBOX     HARDDISK         1.0  PQ: 0 ANSI: 5
[   10.557230] scsi target2:0:1: Beginning Domain Validation
[   10.780358] scsi target2:0:1: Domain Validation skipping write tests
[   10.782435] scsi target2:0:1: Ending Domain Validation
[   10.795207] scsi target2:0:1: asynchronous
[   10.979843] sd 2:0:0:0: [sda] 20971520 512-byte logical blocks: (10.7 GB/10.0 GiB)
[   10.982263] sd 2:0:0:0: Attached scsi generic sg0 type 0
[   10.984497] sd 2:0:0:0: [sda] Write Protect is off
[   10.986132] sd 2:0:0:0: [sda] Incomplete mode parameter data
[   10.987958] sd 2:0:0:0: [sda] Assuming drive cache: write through
[   10.990093] sd 2:0:1:0: [sdb] 20480 512-byte logical blocks: (10.5 MB/10.0 MiB)
[   10.992735] sd 2:0:1:0: [sdb] Write Protect is off
[   11.001906] sd 2:0:1:0: Attached scsi generic sg1 type 0
[   11.002100] sd 2:0:1:0: [sdb] Incomplete mode parameter data
[   11.002102] sd 2:0:1:0: [sdb] Assuming drive cache: write through
[   11.005216] sd 2:0:1:0: [sdb] Attached SCSI disk
[   11.018355]  sda: sda1
[   11.019820] sd 2:0:0:0: [sda] Attached SCSI disk
[   11.777610] floppy0: no floppy controllers found
Begin: Loading essential drivers ... [   13.131810] md: linear personality registered for level -1
[   13.138023] md: multipath personality registered for level -4
[   13.148182] md: raid0 personality registered for level 0
[   13.155099] md: raid1 personality registered for level 1
[   13.229074] raid6: sse2x1   gen()  9360 MB/s
[   13.305411] raid6: sse2x1   xor()  7500 MB/s
[   13.395482] raid6: sse2x2   gen() 12944 MB/s
[   13.485171] raid6: sse2x2   xor()  8319 MB/s
[   13.559741] raid6: sse2x4   gen() 14638 MB/s
[   13.653469] raid6: sse2x4   xor() 10249 MB/s
[   13.733902] raid6: avx2x1   gen() 19534 MB/s
[   13.813377] raid6: avx2x2   gen() 22662 MB/s
[   13.889348] raid6: avx2x4   gen() 26099 MB/s
[   13.903858] raid6: using algorithm avx2x4 gen() 26099 MB/s
[   13.914937] raid6: using avx2x2 recovery algorithm
[   13.937197] xor: automatically using best checksumming function:
[   13.989133]    avx       : 23091.000 MB/sec
[   13.996054] async_tx: api initialized (async)
[   14.018642] md: raid6 personality registered for level 6
[   14.030489] md: raid5 personality registered for level 5
[   14.049875] md: raid4 personality registered for level 4
[   14.079745] md: raid10 personality registered for level 10
done.
Begin: Running /scripts/init-premount ... done.
Begin: Mounting root file system ... Beg[   14.119776] Btrfs loaded
in: Running /scripts/local-top ... done.
Begin: Running /scripts/local-premount ... Scanning for Btrfs filesystems
done.
Warning: fsck no[   14.161872] EXT4-fs (sda1): mounted filesystem with ordered data mode. Opts: (null)
t present, so skipping root file system
done.
Begin: Running /scripts/local-bottom ... done.
Begin: Running /scripts/init-bottom ... done.
[   14.276010] systemd[1]: systemd 229 running in system mod. (+AM +UDIT +SELINUX +IMA +APPARMOR +SMACK +SYSVINIT +UTMP +LIBCRYPTSETUP +GCRYPT +GNUTLS +ACL +XZ -LZ4 +SECCOMP +BLKID +EFUTILS +KMOD -ID)

[   14.467632] systemd1]: Detected virtualiation oracle

[   14.547763] systemd[1]: Detecte arcitectue x86-64.

Welcome to [1mUbuntu 16.04.3 LTS[0m!

[   4.633173] systemd[]: Set hostname to <ubuntu>.
[   14.682499] systemd[1]: Iniiaizin machne I fom ranom generator.
[   14.855813] systemd[1]: Installed transient /etc/machine-id file.

[   15.09000] systed[1]: Created slice Sstm Slice.
[[0;32m  OK  [0m] Created slice System Slice.
[   15.354690] systemd[1]: Listening on LVM2 poll daemon socket.
[[0;32m  OK  [0m] Listening on LVM2 poll daemon socket.
[   15.359942] systemd[1]: Listening on Syslog Socket.
[[0;32m  OK  [0m] Listening on Syslog Socket.
[   15.364997] systemd[1]: Started Forward Password Requests to Wall Directory Watch.
[[0;32m  OK  [0m] Started Forward Password Requests to Wall Directory Watch.
[   15.371859] systemd[1]: Listening on Device-mapper event daemon FIFOs.
[[0;32m  OK  [0m] Listening on Device-mapper event daemon FIFOs.
[   15.377725] systemd[1]: Listening on udev Control Socket.
[[0;32m  OK  [0m] Listening on udev Control Socket.
[   15.382374] systemd[1]: Started Trigger resolvconf update fo networkd DNS.
[[0;32m  OK  [0m] Started Trigger resolvconf update for networkd DNS.
[   15.510094] systemd[]: Reached target Encrypted Volumes.
[[0;32m  OK  [0m] Reached target Encrypted Volumes.
[   15.10314] systemd[]: Lstening on JournalSocket.
[[0;32m  OK  [0m] Listening on Journal Socket.
[   15.881679] systemd[1]: Mounting Debug File System...
         Mounting Debug File System...
[   15.913609] systemd[1]: Mounting POSIX Message Queue File System...
         Mounting POSIX Message Queue File System...
[   15.931421] systemd[1]: Mounting Huge Pages File System...
         Mounting Huge Pages File System...
[   15.961907] systemd[1]: Starting Load Kernel Modules...
         Starting Load Kernel Modules...
[   15.985574] systemd[1]: Starting Create list of required static device nodes for the current kernel...
         [   15.990444] Loading iSCSI transport class v2.0-870.
Starting Create list of required st... nodes for[   16.025774] iscsi: registered transport (tcp)
 the current kernel...
[   16.041404] systemd[1]: Starting Nameserver information manager...
         Starting Nameserver information manager...
[   16.067295] systemd[1]: Listening on /dev/initctl Compatibility Named Pipe.
[[0;32m  OK  [0[   16.089348] iscsi: registered transport (iser)
m] Listening on /dev/initctl Compatibility Named Pipe.
[   16.116986] systemd[1]: Listening on LVM2 metadata daemon socket.
[[0;32m  OK  [0m] Listening on LVM2 metadata daemon socket.
[   16.197669] systemd[1]: Starting Monitoring of LVM2 mirrors, snapshots etc. using dmeventd or progress polling...
         Starting Monitoring of LVM2 mirrors... dmeventd or progress polling...
[   16.225718] systemd[1]: Listening on udev Kernel Socket.
[[0;32m  OK  [0m] Listening on udev Kernel Socket.
[   16.236454] random: nonblocking pool is initialized
[   16.239092] systemd[1]: Starting Set console keymap...
         Starting Set console keymap...
[   16.261327] systemd[1]: Reached target Swap.
[[0;32m  OK  [0m] Reached target Swap.
[   16.287633] systemd[1]: Reached target User and Group Name Lookups.
[[0;32m  OK  [0m] Reached target User and Group Name Lookups.
[   16.318178] systed[1]: Set u autmount rbitary Executable File Formats File System Automount Point.

[[0;32m  OK  [0m] Set up automount Arbitrary Executab...ats File System Automount Point.
[   16.448575] systemd[1]: Listening on Journal Socket (/dev/log).
[[0;32m  OK  [0m] Listening on Journal Socket (/dev/log).
[   16.465182] systemd[1]: Starting Remount Root and Kernel File Systems...
         Starting Remount Root and Kernel File Systems...[   16.470560] EXT4-fs (sda1): re-mounted. Opts: (null)

[   16.473241] systemd[1]: Starting Uncomplicated firewall...
         Starting Uncomplicated firewall...
[   16.478534] systemd[1]: Created slice system-serial\x2dgetty.slice.
[[0;32m  OK  [0m] Created slice system-serial\x2dgetty.slice.
[   16.485724] systemd[1]: Created slice User and Session Slice.
[[0;32m  OK  [0m] Created slice User and Session Slice.
[   16.505449] systemd[1]: Reached target Slices.
[[0;32m  OK  [0m] Reached target Slices.
[   16.518582] systemd[1]: Listening on Journal Audit Socket.
[[0;32m  OK  [0m] Listening on Journal Audit Socket.
[   16.557914] systemd[1]: Starting Journal Service...
         Starting Journal Service...
[   16.569914] systemd[1]: Mounted POSIX Message Queue File System.
[[0;32m  OK  [0m] Mounted POSIX Message Queue File System.
[   16.61848] systemd[1]: MountedHugePages Fle Sstem.
[[0;32m  OK  [0m] Mounted Huge Pages File System.
[   16.803411] systemd[1]: Mounted Debug File System.
[[0;32m  OK  [0m] Mounted Debug File System.
[   16.873820] systemd[1]: Started Journal Service.
[[0;32m  OK  [0m] Started Journal Service.
[[0;32m  OK  [0m] Started Load Kernel Modules.
[[0;32m  OK  [0m] Started Create list of required sta...ce nodes for the current kernel.
[[0;32m  OK  [0m] Started Set console keymap.
[[0;32m  OK  [0m] Started Remount Root and Kernel File Systems.
[[0;32m  OK  [0m] Started Uncomplicated firewall.
[[0;32m  OK  [0m] Started Nameserver information manager.
[[0;32m  OK  [0m] Started LVM2 metadata daemon.
         Starting udev Coldplug all Devices...
         Starting Initial cloud-init job (pre-networking)...
         Starting Load/Save Random Seed...
         Starting Create Static Device Nodes in /dev...
         Starting Apply Kernel Variables...
         Mounting FUSE Control File System...
         Starting Flush Journal to Persistent Storage...
[[0;32m  OK  [0m] Mounted FUSE Control File System.
[[0;32m  OK  [0m] Started Load/Save Random Seed.
[[0;32m  OK  [0m] Started Create Static Device Nodes in /dev.
[[0;32m  OK  [0m] Started Apply Kernel Variables.
[[0;32m  OK  [0m] Started udev Coldplug all Devices.
[[0;32m  OK  [0m] Started Flush Journal to Persistent Storage.
         Starting udev Kernel Device Manager...
[[0;32m  OK  [0m] Started udev Kernel Device Manager.
[[0;32m  OK  [0m] Started Dispatch Password Requests to Console Directory Watch.
[[0;32m  OK  [0m] Started Monitoring of LVM2 mirrors,...ng dmeventd or progress polling.
[[0;32m  OK  [0m] Found device /dev/ttyS0.
[[0;32m  OK  [0m] Reached target Local File Systems (Pre).
[[0;32m  OK  [0m] Reached target Local File Systems.
         Starting Tell Plymouth To Write Out Runtime Data...
         Starting LSB: AppArmor initialization...
         Starting Set console font and keymap...
         Starting Commit a transient machine-id on disk...
         Starting Create Volatile Files and Directories...
[[0;32m  OK  [0m] Started Tell Plymouth To Write Out Runtime Data.
[[0;32m  OK  [0m] Started Create Volatile Files and Directories.
[[0;32m  OK  [0m] Reached target System Time Synchronized.
         Starting Update UTMP about System Boot/Shutdown...
[[0;32m  OK  [0m] Started Commit a transient machine-id on disk.
[[0;32m  OK  [0m] Started Update UTMP about System Boot/Shutdown.
[[0;32m  OK  [0m] Listening on Load/Save RF Kill Switch Status /dev/rfkill Watch.
[   14.361601] cloud-init[449]: Cloud-init v. 0.7.9 running 'init-local' at Wed, 21 Nov 2018 08:41:28 +0000. Up 14.09 seconds.
[[0;32m  OK  [0m] Started Initial cloud-init job (pre-networking).
[[0;32m  OK  [0m] Reached target Network (Pre).
[[0;32m  OK  [0m] Started LSB: AppArmor initialization.
         Starting Raise network interfaces...
[[0;32m  OK  [0m] Started Set console font and keymap.
[[0;32m  OK  [0m] Created slice system-getty.slice.
[[0;32m  OK  [0m] Started Raise network interfaces.
[[0;32m  OK  [0m] Reached target Network.
         Starting Initial cloud-init job (metadata service crawler)...
[   17.623836] cloud-init[940]: Cloud-init v. 0.7.9 running 'init' at Wed, 21 Nov 2018 08:41:31 +0000. Up 17.16 seconds.
[   17.664800] cloud-init[940]: ci-info: +++++++++++++++++++++++++++++++++++++Net device info++++++++++++++++++++++++++++++++++++++
[[0;32m  OK  [0m] Started Initial cloud-init job (metadata service crawler).
[   17.730896] cloud-init[940]: ci-info: +--------+------+----------------------------+---------------+-------+-------------------+
[   18.188626] cloud-init[940]: ci-info: | Device |  Up  |          Address           |      Mask     | Scope |     Hw-Address    |
[   18.236193] cloud-init[940]: ci-info: +--------+------+----------------------------+---------------+-------+-------------------+
[   18.236720] cloud-init[940]: ci-info: |   lo   | True |         127.0.0.1          |   255.0.0.0   |   .   |         .         |
[   18.236758] cloud-init[940]: ci-info: |   lo   | True |          ::1/128           |       .       |  host |         .         |
[   18.236795] cloud-init[940]: ci-info: | enp0s3 | True |         10.0.2.15          | 255.255.255.0 |   .   | 02:51:17:41:23:cb |
[   18.236825] cloud-init[940]: ci-info: | enp0s3 | True | fe80::51:17ff:fe41:23cb/64 |       .       |  link | 02:51:17:41:23:cb |
[   18.236852] cloud-init[940]: ci-info: +--------+------+----------------------------+---------------+-------+-------------------+
[   18.236883] cloud-init[940]: ci-info: +++++++++++++++++++++++++++Route IPv4 info++++++++++++++++++++++++++++
[   18.236916] cloud-init[940]: ci-info: +-------+-------------+----------+---------------+-----------+-------+
[   18.236945] cloud-init[940]: ci-info: | Route | Destination | Gateway  |    Genmask    | Interface | Flags |
[   18.236974] cloud-init[940]: ci-info: +-------+-------------+----------+---------------+-----------+-------+
[   18.237003] cloud-init[940]: ci-info: |   0   |   0.0.0.0   | 10.0.2.2 |    0.0.0.0    |   enp0s3  |   UG  |
[   18.237032] cloud-init[940]: ci-info: |   1   |   10.0.2.0  | 0.0.0.0  | 255.255.255.0 |   enp0s3  |   U   |
[   18.237063] cloud-init[940]: ci-info: +-------+-------------+----------+---------------+-----------+-------+
[   18.237115] cloud-init[940]: Generating public/private rsa key pair.
[   18.237147] cloud-init[940]: Your identification has been saved in /etc/ssh/ssh_host_rsa_key.
[   18.237175] cloud-init[940]: Your public key has been saved in /etc/ssh/ssh_host_rsa_key.pub.
[   18.237203] cloud-init[940]: The key fingerprint is:
[   18.237232] cloud-init[940]: SHA256:CggpclYNHxQMCoHOjbke0r5duhJB3/Dldg+t6cFTI2s root@ubuntu-xenial
[   18.237260] cloud-init[940]: The key's randomart image is:
[   18.237290] cloud-init[940]: +---[RSA 2048]----+
[   18.237320] cloud-init[940]: |+.  +*+.         |
[   18.237351] cloud-init[940]: |.o.o..o..        |
[   18.237387] cloud-init[940]: |B.B. +.o   .     |
[   18.237416] cloud-init[940]: |oO.o. o o + +    |
[   18.237443] cloud-init[940]: | .o..  .So O .   |
[   18.237470] cloud-init[940]: |.oo  . .  E .    |
[   18.237497] cloud-init[940]: |o...  o  o o     |
[   18.237524] cloud-init[940]: | .o. o    .      |
[   18.237553] cloud-init[940]: |  .o+.           |
[   18.237583] cloud-init[940]: +----[SHA256]-----+
[   18.237612] cloud-init[940]: Generating public/private dsa key pair.
[   18.237640] cloud-init[940]: Your identification has been saved in /etc/ssh/ssh_host_dsa_key.
[   18.237668] cloud-init[940]: Your public key has been saved in /etc/ssh/ssh_host_dsa_key.pub.
[   18.237696] cloud-init[940]: The key fingerprint is:
[   18.237724] cloud-init[940]: SHA256:lPLZR3YxwZfLzf7Qo8in8RlcCXt0RlOYuZw07lfhTxc root@ubuntu-xenial
[   18.237752] cloud-init[940]: The key's randomart image is:
[   18.237778] cloud-init[940]: +---[DSA 1024]----+
[   18.237807] cloud-init[940]: |             .+*=|
[   18.237836] cloud-init[940]: |         .    BEo|
[   18.237863] cloud-init[940]: |      . o   o=+BB|
[   18.237901] cloud-init[940]: |       + o o .O=O|
[   18.237939] cloud-init[940]: |        S . .o B+|
[   18.237968] cloud-init[940]: |           .. =.=|
[   18.237997] cloud-init[940]: |          ...o.oo|
[   18.238025] cloud-init[940]: |           oooo .|
[   18.238053] cloud-init[940]: |           .oo   |
[   18.238080] cloud-init[940]: +----[SHA256]-----+
[   18.238107] cloud-init[940]: Generating public/private ecdsa key pair.
[   18.238135] cloud-init[940]: Your identification has been saved in /etc/ssh/ssh_host_ecdsa_key.
[   18.238162] cloud-init[940]: Your public key has been saved in /etc/ssh/ssh_host_ecdsa_key.pub.
[   18.238193] cloud-init[940]: The key fingerprint is:
[   18.238221] cloud-init[940]: SHA256:1DLW6bFjygU6METbqP9WnC+pYxXP8AAdlG74eXQ+7YQ root@ubuntu-xenial[[0;32m  OK  [0m] Reached target Cloud-config availability.
[[0;32m  OK  [0m] Reached target System Initialization.

[[0;32m  OK  [0m] Started ACPI Events Check.
[   19.383956] cloud-init[940]: The key's randomart image is:
[[   19.388282] cloud-init[940]: +---[ECDSA 256]---+
[   19.390732] cloud-init[940]: |   .o  ooo       |[0;32m  OK  [0m] Reached target Paths.
[[0;32m  OK  [0m] Started Daily Cleanup of Temporary Directories.
[[0;32m  OK  [0m] Started Timer to automatically refresh installed snaps.
[[0;32m  OK  [0m] Listening on ACPID Listen Socket.
[[0;32m  OK  [0m] Listening on UUID daemon activation socket.
[[0;32m  OK  [0m] Listening on D-Bus System Message Bus Socket.
[[0;32m  OK  [0m] Started Timer to automatically fetch and run repair assertions.

         Starting LXD - unix socket.
         [   19.407817] cloud-init[940]: |   . +. oo .     |
[   19.411052] cloud-init[940]: |    = .+* =      |
[   19.413001] cloud-init[940]: |   . o.+*=.o.    |
[   19.414082] cloud-init[940]: |  .   o+S@*o o   |
[   19.415916] cloud-init[940]: |   .   oB+=.E o  |
Starting Socket activation for snappy daemon.
[   19.416256] cloud-init[940]: |    .  oo+   +   |
[   19.424565] cloud-init[940]: |     .+ o .   .  |
[   19.426385] cloud-init[940]: |     ooo .       |
[   19.427411] cloud-init[940]: +----[SHA256]-----+
[   19.429257] cloud-init[940]: Generating public/private ed25519 key pair.
[   19.431266] cloud-init[940]: Your identification has been saved in /etc/ssh/ssh_host_ed25519_key.
[[0;32m  OK  [0m] Reached target Network is Online.
[   19.432370] cloud-init[940]: Your public key has been saved in /etc/ssh/ssh_host_ed25519_key.pub.
[   19.437965] cloud-init[940]: The key fingerprint is:
[   19.440789] cloud-init[940]: SHA256:yjBPD3BXuuXMuXLt8p9pj4aEeJZ+Ht9ZsOsAiVPyrTU root@ubuntu-xenial
[   19.441528] cloud-init[940]: The key's randomart image is:
[[0;32m  OK  [0m] Started Daily apt download activities.
[[   19.444816] cloud-init[940]: +--[ED25519 256]--+
[   19.485659] cloud-init[940]: |          .      |
[0;32m  OK  [0m] Started Daily apt upgrade and clean activities.
[   19.486115] cloud-init[940]: |         o       |
[[0;32m  OK  [0m] Reached target Timers.
[   19.555023] cloud-init[940]: |    . . + o      |
[   19.578661] cloud-init[940]: |     o . @ +     |
         Starting iSCSI initiator daemon (iscsid)...
[   19.579280] cloud-init[940]: |    o o S.OoE .  |
[   19.612777] cloud-init[940]: |     * +..=*.. o |
[[0;32m  OK  [0m] Listening on LXD - unix socket.
[   19.613590] cloud-init[940]: |      + o++.+.. .|
[   19.637014] cloud-init[940]: |         oo.o+o*o|
[   19.638130] cloud-init[940]: |           =+=Ooo|
[[   19.638496] [0;32m  OK  [0mcloud-init] [940]: Listening on Socket activation for snappy daemon.+----[SHA256]-----+

[[0;32m  OK  [0m] Reached target Sockets.
[[0;32m  OK  [0m] Reached target Basic System.
         Starting Pollinate to seed the pseudo random number generator...
[[0;32m  OK  [0m] Started D-Bus System Message Bus.
         Starting /etc/rc.local Compatibility...
[[0;32m  OK  [0m] Started ACPI event daemon.
         Starting Accounts Service...
[[0;32m  OK  [0m] Started Regular background program processing daemon.
         Starting LSB: Record successful boot for GRUB...
[[0;32m  OK  [0m] Started FUSE filesystem for LXC.
         Starting LXD - container startup/shutdown...
         Starting Apply the settings specified in cloud-config...
[[0;32m  OK  [0m] Started Deferred execution scheduler.
         Starting Login Service...
         Starting System Logging Service...
[[0;32m  OK  [0m] Started Unattended Upgrades Shutdown.
         Starting LSB: MD monitoring daemon...
         Starting Snappy daemon...
[[0;32m  OK  [0m] Started System Logging Service.
[[0;32m  OK  [0m] Started iSCSI initiator daemon (iscsid).
[[0;32m  OK  [0m] Started Pollinate to seed the pseudo random number generator.
[[0;32m  OK  [0m] Started /etc/rc.local Compatibility.
[[0;32m  OK  [0m] Started LXD - container startup/shutdown.
[[0;32m  OK  [0m] Started LSB: Record successful boot for GRUB.
[[0;32m  OK  [0m] Started LSB: MD monitoring daemon.
         Starting Authenticate and Authorize Users to Run Privileged Tasks...
         Starting OpenBSD Secure Shell server...
         Starting Login to default iSCSI targets...
[[0;32m  OK  [0m] Started Snappy daemon.
[[0;32m  OK  [0m] Started OpenBSD Secure Shell server.
[[0;32m  OK  [0m] Started Login Service.
[[0;32m  OK  [0m] Started Authenticate and Authorize Users to Run Privileged Tasks.
[[0;32m  OK  [0m] Started Accounts Service.
         Starting Auto import assertions from block devices...
[[0;32m  OK  [0m] Started Auto import assertions from block devices.
[[0;32m  OK  [0m] Started Login to default iSCSI targets.
[[0;32m  OK  [0m] Reached target Remote File Systems (Pre).
[[0;32m  OK  [0m] Reached target Remote File Systems.
[   20.374561] cloud-init[1095]: Generating locales (this might take a while)...
         Starting LSB: daemon to balance interrupts for SMP systems...
         Starting LSB: Set the CPU Frequency Scaling governor to "ondemand"...
         Starting LSB: automatic crash report generation...
         Starting Permit User Sessions...
         Starting LSB: VirtualBox Linux Additions...
[[0;32m  OK  [0m] Started Permit User Sessions.
[[0;32m  OK  [0m] Started LSB: Set the CPU Frequency Scaling governor to "ondemand".
[[0;32m  OK  [0m] Started LSB: daemon to balance interrupts for SMP systems.
         Starting Terminate Plymouth Boot Screen...
         Starting Hold until boot process finishes up...
[[0;32m  OK  [0m] Started LSB: automatic crash report generation.
[[0;32m  OK  [0m] Started LSB: VirtualBox Linux Additions.
[[0;32m  OK  [0m] Started Terminate Plymouth Boot Screen.
[[0;32m  OK  [0m] Started Hold until boot process finishes up.
[[0;32m  OK  [0m] Started Serial Getty on ttyS0.
         Starting Set console scheme...
[[0;32m  OK  [0m] Started Getty on tty1.
[[0;32m  OK  [0m] Reached target Login Prompts.
[[0;32m  OK  [0m] Reached target Multi-User System.
[[0;32m  OK  [0m] Reached target Graphical Interface.
         Starting Update UTMP about System Runlevel Changes...
[[0;32m  OK  [0m] Started Set console scheme.
[[0;32m  OK  [0m] Started Update UTMP about System Runlevel Changes.
[   21.188164] cloud-init[1095]:   en_US.UTF-8... done
[   21.201230] cloud-init[1095]: Generation complete.
         Stopping OpenBSD Secure Shell server...
[[0;32m  OK  [0m] Stopped OpenBSD Secure Shell server.
         Starting OpenBSD Secure Shell server...
[[0;32m  OK  [0m] Started OpenBSD Secure Shell server.
[   21.530225] cloud-init[1095]: Cloud-init v. 0.7.9 running 'modules:config' at Wed, 21 Nov 2018 08:41:34 +0000. Up 20.25 seconds.
[[0;32m  OK  [0m] Started Apply the settings specified in cloud-config.
         Starting Execute cloud user/final scripts...
ci-info: no authorized ssh keys fingerprints found for user ubuntu.
<14>Nov 21 08:41:36 ec2: 
<14>Nov 21 08:41:36 ec2: #############################################################
<14>Nov 21 08:41:36 ec2: -----BEGIN SSH HOST KEY FINGERPRINTS-----
<14>Nov 21 08:41:36 ec2: 1024 SHA256:lPLZR3YxwZfLzf7Qo8in8RlcCXt0RlOYuZw07lfhTxc root@ubuntu-xenial (DSA)
<14>Nov 21 08:41:36 ec2: 256 SHA256:1DLW6bFjygU6METbqP9WnC+pYxXP8AAdlG74eXQ+7YQ root@ubuntu-xenial (ECDSA)
<14>Nov 21 08:41:36 ec2: 256 SHA256:yjBPD3BXuuXMuXLt8p9pj4aEeJZ+Ht9ZsOsAiVPyrTU root@ubuntu-xenial (ED25519)
<14>Nov 21 08:41:36 ec2: 2048 SHA256:CggpclYNHxQMCoHOjbke0r5duhJB3/Dldg+t6cFTI2s root@ubuntu-xenial (RSA)
<14>Nov 21 08:41:36 ec2: -----END SSH HOST KEY FINGERPRINTS-----
<14>Nov 21 08:41:36 ec2: #############################################################
-----BEGIN SSH HOST KEY KEYS-----
ecdsa-sha2-nistp256 AAAAE2VjZHNhLXNoYTItbmlzdHAyNTYAAAAIbmlzdHAyNTYAAABBBJhXzkVShkJlRMSesStlS+mba0n77lFUtaCHIoU4x0v946v2z47RC917tVDQlDGX4I3SJ+Eizvy8bRkZc2yjVDc= root@ubuntu-xenial
ssh-ed25519 AAAAC3NzaC1lZDI1NTE5AAAAIMwA+t38LJWvre8ami1TOmOjkXT3cqgwjd9hRsOy/CII root@ubuntu-xenial
ssh-rsa AAAAB3NzaC1yc2EAAAADAQABAAABAQDEUMXoXfr5vZuwjzODQG5cyVS+vXrKXRs8fSJS9uRmVK9i7w/ZbSmlMKnGjb14objqLLx/5DgYNbWnJO4N80QgzhO86P2LgVcOcFo6mKi6hc3wsWnGC0fluZpud2rWdET1L6Sqb0IqbutQSFDlIFEe6U/V4qZzopk3IxtrJk3shvRybCS633VJtDzMVJytgWBn2l8iZm2Ot2kgRbBENYtXxzyLnsjd/9w1P4gykXRUfX000tfH3P4T/+Bee0dVgXinWJpHJL/3xyQnUzMFvMH1YGWd0uVdRSAaUQ8KiSEdVyxI3zipW09SoeJGRkAyEXFnUK4ZQveSZdozT3Pbt4u/ root@ubuntu-xenial
-----END SSH HOST KEY KEYS-----
[   22.662978] cloud-init[1298]: Cloud-init v. 0.7.9 running 'modules:final' at Wed, 21 Nov 2018 08:41:36 +0000. Up 21.83 seconds.
[   22.702624] cloud-init[1298]: ci-info: no authorized ssh keys fingerprints found for user ubuntu.
[   22.720879] [[0;32m  OK  [0m] Started Execute cloud user/final scripts.
[[0;32m  OK  [cloud-init[1298]: Cloud-init v. 0.7.9 finished at Wed, 21 Nov 2018 08:41:37 +0000. Datasource DataSourceNoCloud [seed=/dev/sdb][dsmode=net].  Up 22.65 seconds

Ubuntu 16.04.3 LTS ubuntu-xenial ttyS0

ubuntu-xenial login: 